; 31/PC-8031BE-1W.bin disassembly symbol file
; See header.z80 for naming conventions and references.

restart:        equ     0x002A  ; guess based on SP being reset
_L_035:         equ     0x0035
_S_073:         equ     0x0073

unkjmptbl:      equ     0x0086

_L_4B8:         equ     0x04B8
_S_4C5:         equ     0x04C5
_L_4CC:         equ     0x04CC
_S_4D9:         equ     0x04D9
_L_4DD:         equ     0x04DD

tab7F0:         equ     0x07F0
